^C:\SOURCECODE\ZLIB1211\ZLIB-1.2.11\BUILD\CMAKEFILES\A40489CF4882537797F411AD97A3868B\GENERATE.STAMP.RULE
C:\SOURCECODE\ZLIB1211\ZLIB-1.2.11\BUILD\CMAKEFILES\GENERATE.STAMP
^C:\SOURCECODE\ZLIB1211\ZLIB-1.2.11\BUILD\CMAKEFILES\31290E4D6AA2DE2C0A7BA82479CAB561\GENERATE.STAMP.RULE
C:\SOURCECODE\ZLIB1211\ZLIB-1.2.11\BUILD\CMAKEFILES\GENERATE.STAMP
