^C:\SOURCECODE\TIFF-4.0.7\TIFF-4.0.7\BUILD\LIBTIFF\TIFF.DIR\DEBUG\DUMMY.OBJ|C:\SOURCECODE\TIFF-4.0.7\TIFF-4.0.7\BUILD\LIBTIFF\TIFF.DIR\DEBUG\GETOPT.OBJ|C:\SOURCECODE\TIFF-4.0.7\TIFF-4.0.7\BUILD\LIBTIFF\TIFF.DIR\DEBUG\STRCASECMP.OBJ|C:\SOURCECODE\TIFF-4.0.7\TIFF-4.0.7\BUILD\LIBTIFF\TIFF.DIR\DEBUG\TIF_AUX.OBJ|C:\SOURCECODE\TIFF-4.0.7\TIFF-4.0.7\BUILD\LIBTIFF\TIFF.DIR\DEBUG\TIF_CLOSE.OBJ|C:\SOURCECODE\TIFF-4.0.7\TIFF-4.0.7\BUILD\LIBTIFF\TIFF.DIR\DEBUG\TIF_CODEC.OBJ|C:\SOURCECODE\TIFF-4.0.7\TIFF-4.0.7\BUILD\LIBTIFF\TIFF.DIR\DEBUG\TIF_COLOR.OBJ|C:\SOURCECODE\TIFF-4.0.7\TIFF-4.0.7\BUILD\LIBTIFF\TIFF.DIR\DEBUG\TIF_COMPRESS.OBJ|C:\SOURCECODE\TIFF-4.0.7\TIFF-4.0.7\BUILD\LIBTIFF\TIFF.DIR\DEBUG\TIF_DIR.OBJ|C:\SOURCECODE\TIFF-4.0.7\TIFF-4.0.7\BUILD\LIBTIFF\TIFF.DIR\DEBUG\TIF_DIRINFO.OBJ|C:\SOURCECODE\TIFF-4.0.7\TIFF-4.0.7\BUILD\LIBTIFF\TIFF.DIR\DEBUG\TIF_DIRREAD.OBJ|C:\SOURCECODE\TIFF-4.0.7\TIFF-4.0.7\BUILD\LIBTIFF\TIFF.DIR\DEBUG\TIF_DIRWRITE.OBJ|C:\SOURCECODE\TIFF-4.0.7\TIFF-4.0.7\BUILD\LIBTIFF\TIFF.DIR\DEBUG\TIF_DUMPMODE.OBJ|C:\SOURCECODE\TIFF-4.0.7\TIFF-4.0.7\BUILD\LIBTIFF\TIFF.DIR\DEBUG\TIF_ERROR.OBJ|C:\SOURCECODE\TIFF-4.0.7\TIFF-4.0.7\BUILD\LIBTIFF\TIFF.DIR\DEBUG\TIF_EXTENSION.OBJ|C:\SOURCECODE\TIFF-4.0.7\TIFF-4.0.7\BUILD\LIBTIFF\TIFF.DIR\DEBUG\TIF_FAX3.OBJ|C:\SOURCECODE\TIFF-4.0.7\TIFF-4.0.7\BUILD\LIBTIFF\TIFF.DIR\DEBUG\TIF_FAX3SM.OBJ|C:\SOURCECODE\TIFF-4.0.7\TIFF-4.0.7\BUILD\LIBTIFF\TIFF.DIR\DEBUG\TIF_FLUSH.OBJ|C:\SOURCECODE\TIFF-4.0.7\TIFF-4.0.7\BUILD\LIBTIFF\TIFF.DIR\DEBUG\TIF_GETIMAGE.OBJ|C:\SOURCECODE\TIFF-4.0.7\TIFF-4.0.7\BUILD\LIBTIFF\TIFF.DIR\DEBUG\TIF_JBIG.OBJ|C:\SOURCECODE\TIFF-4.0.7\TIFF-4.0.7\BUILD\LIBTIFF\TIFF.DIR\DEBUG\TIF_JPEG.OBJ|C:\SOURCECODE\TIFF-4.0.7\TIFF-4.0.7\BUILD\LIBTIFF\TIFF.DIR\DEBUG\TIF_JPEG_12.OBJ|C:\SOURCECODE\TIFF-4.0.7\TIFF-4.0.7\BUILD\LIBTIFF\TIFF.DIR\DEBUG\TIF_LUV.OBJ|C:\SOURCECODE\TIFF-4.0.7\TIFF-4.0.7\BUILD\LIBTIFF\TIFF.DIR\DEBUG\TIF_LZMA.OBJ|C:\SOURCECODE\TIFF-4.0.7\TIFF-4.0.7\BUILD\LIBTIFF\TIFF.DIR\DEBUG\TIF_LZW.OBJ|C:\SOURCECODE\TIFF-4.0.7\TIFF-4.0.7\BUILD\LIBTIFF\TIFF.DIR\DEBUG\TIF_NEXT.OBJ|C:\SOURCECODE\TIFF-4.0.7\TIFF-4.0.7\BUILD\LIBTIFF\TIFF.DIR\DEBUG\TIF_OJPEG.OBJ|C:\SOURCECODE\TIFF-4.0.7\TIFF-4.0.7\BUILD\LIBTIFF\TIFF.DIR\DEBUG\TIF_OPEN.OBJ|C:\SOURCECODE\TIFF-4.0.7\TIFF-4.0.7\BUILD\LIBTIFF\TIFF.DIR\DEBUG\TIF_PACKBITS.OBJ|C:\SOURCECODE\TIFF-4.0.7\TIFF-4.0.7\BUILD\LIBTIFF\TIFF.DIR\DEBUG\TIF_PIXARLOG.OBJ|C:\SOURCECODE\TIFF-4.0.7\TIFF-4.0.7\BUILD\LIBTIFF\TIFF.DIR\DEBUG\TIF_PREDICT.OBJ|C:\SOURCECODE\TIFF-4.0.7\TIFF-4.0.7\BUILD\LIBTIFF\TIFF.DIR\DEBUG\TIF_PRINT.OBJ|C:\SOURCECODE\TIFF-4.0.7\TIFF-4.0.7\BUILD\LIBTIFF\TIFF.DIR\DEBUG\TIF_READ.OBJ|C:\SOURCECODE\TIFF-4.0.7\TIFF-4.0.7\BUILD\LIBTIFF\TIFF.DIR\DEBUG\TIF_STRIP.OBJ|C:\SOURCECODE\TIFF-4.0.7\TIFF-4.0.7\BUILD\LIBTIFF\TIFF.DIR\DEBUG\TIF_SWAB.OBJ|C:\SOURCECODE\TIFF-4.0.7\TIFF-4.0.7\BUILD\LIBTIFF\TIFF.DIR\DEBUG\TIF_THUNDER.OBJ|C:\SOURCECODE\TIFF-4.0.7\TIFF-4.0.7\BUILD\LIBTIFF\TIFF.DIR\DEBUG\TIF_TILE.OBJ|C:\SOURCECODE\TIFF-4.0.7\TIFF-4.0.7\BUILD\LIBTIFF\TIFF.DIR\DEBUG\TIF_UNIX.OBJ|C:\SOURCECODE\TIFF-4.0.7\TIFF-4.0.7\BUILD\LIBTIFF\TIFF.DIR\DEBUG\TIF_VERSION.OBJ|C:\SOURCECODE\TIFF-4.0.7\TIFF-4.0.7\BUILD\LIBTIFF\TIFF.DIR\DEBUG\TIF_WARNING.OBJ|C:\SOURCECODE\TIFF-4.0.7\TIFF-4.0.7\BUILD\LIBTIFF\TIFF.DIR\DEBUG\TIF_WRITE.OBJ|C:\SOURCECODE\TIFF-4.0.7\TIFF-4.0.7\BUILD\LIBTIFF\TIFF.DIR\DEBUG\TIF_ZIP.OBJ
C:\WINDOWS\GLOBALIZATION\SORTING\SORTDEFAULT.NLS
C:\PROGRAM FILES (X86)\WINDOWS KITS\8.1\LIB\WINV6.3\UM\X64\KERNEL32.LIB
C:\PROGRAM FILES (X86)\WINDOWS KITS\8.1\LIB\WINV6.3\UM\X64\USER32.LIB
C:\PROGRAM FILES (X86)\WINDOWS KITS\8.1\LIB\WINV6.3\UM\X64\GDI32.LIB
C:\PROGRAM FILES (X86)\WINDOWS KITS\8.1\LIB\WINV6.3\UM\X64\WINSPOOL.LIB
C:\PROGRAM FILES (X86)\WINDOWS KITS\8.1\LIB\WINV6.3\UM\X64\SHELL32.LIB
C:\PROGRAM FILES (X86)\WINDOWS KITS\8.1\LIB\WINV6.3\UM\X64\OLE32.LIB
C:\PROGRAM FILES (X86)\WINDOWS KITS\8.1\LIB\WINV6.3\UM\X64\OLEAUT32.LIB
C:\PROGRAM FILES (X86)\WINDOWS KITS\8.1\LIB\WINV6.3\UM\X64\UUID.LIB
C:\PROGRAM FILES (X86)\WINDOWS KITS\8.1\LIB\WINV6.3\UM\X64\COMDLG32.LIB
C:\PROGRAM FILES (X86)\WINDOWS KITS\8.1\LIB\WINV6.3\UM\X64\ADVAPI32.LIB
C:\TOOLS\ANACONDA\LIBRARY\LIB\Z.LIB
C:\TOOLS\ANACONDA\LIBRARY\LIB\JPEG.LIB
C:\SOURCECODE\TIFF-4.0.7\TIFF-4.0.7\BUILD\LIBTIFF\TIFF.DIR\DEBUG\TIF_AUX.OBJ
C:\SOURCECODE\TIFF-4.0.7\TIFF-4.0.7\BUILD\LIBTIFF\TIFF.DIR\DEBUG\TIF_CLOSE.OBJ
C:\SOURCECODE\TIFF-4.0.7\TIFF-4.0.7\BUILD\LIBTIFF\TIFF.DIR\DEBUG\TIF_CODEC.OBJ
C:\SOURCECODE\TIFF-4.0.7\TIFF-4.0.7\BUILD\LIBTIFF\TIFF.DIR\DEBUG\TIF_COLOR.OBJ
C:\SOURCECODE\TIFF-4.0.7\TIFF-4.0.7\BUILD\LIBTIFF\TIFF.DIR\DEBUG\TIF_COMPRESS.OBJ
C:\SOURCECODE\TIFF-4.0.7\TIFF-4.0.7\BUILD\LIBTIFF\TIFF.DIR\DEBUG\TIF_DIR.OBJ
C:\SOURCECODE\TIFF-4.0.7\TIFF-4.0.7\BUILD\LIBTIFF\TIFF.DIR\DEBUG\TIF_DIRINFO.OBJ
C:\SOURCECODE\TIFF-4.0.7\TIFF-4.0.7\BUILD\LIBTIFF\TIFF.DIR\DEBUG\TIF_DIRREAD.OBJ
C:\SOURCECODE\TIFF-4.0.7\TIFF-4.0.7\BUILD\LIBTIFF\TIFF.DIR\DEBUG\TIF_DIRWRITE.OBJ
C:\SOURCECODE\TIFF-4.0.7\TIFF-4.0.7\BUILD\LIBTIFF\TIFF.DIR\DEBUG\TIF_DUMPMODE.OBJ
C:\SOURCECODE\TIFF-4.0.7\TIFF-4.0.7\BUILD\LIBTIFF\TIFF.DIR\DEBUG\TIF_ERROR.OBJ
C:\SOURCECODE\TIFF-4.0.7\TIFF-4.0.7\BUILD\LIBTIFF\TIFF.DIR\DEBUG\TIF_EXTENSION.OBJ
C:\SOURCECODE\TIFF-4.0.7\TIFF-4.0.7\BUILD\LIBTIFF\TIFF.DIR\DEBUG\TIF_FAX3.OBJ
C:\SOURCECODE\TIFF-4.0.7\TIFF-4.0.7\BUILD\LIBTIFF\TIFF.DIR\DEBUG\TIF_FAX3SM.OBJ
C:\SOURCECODE\TIFF-4.0.7\TIFF-4.0.7\BUILD\LIBTIFF\TIFF.DIR\DEBUG\TIF_FLUSH.OBJ
C:\SOURCECODE\TIFF-4.0.7\TIFF-4.0.7\BUILD\LIBTIFF\TIFF.DIR\DEBUG\TIF_GETIMAGE.OBJ
C:\SOURCECODE\TIFF-4.0.7\TIFF-4.0.7\BUILD\LIBTIFF\TIFF.DIR\DEBUG\TIF_JBIG.OBJ
C:\SOURCECODE\TIFF-4.0.7\TIFF-4.0.7\BUILD\LIBTIFF\TIFF.DIR\DEBUG\TIF_JPEG.OBJ
C:\SOURCECODE\TIFF-4.0.7\TIFF-4.0.7\BUILD\LIBTIFF\TIFF.DIR\DEBUG\TIF_JPEG_12.OBJ
C:\SOURCECODE\TIFF-4.0.7\TIFF-4.0.7\BUILD\LIBTIFF\TIFF.DIR\DEBUG\TIF_LUV.OBJ
C:\SOURCECODE\TIFF-4.0.7\TIFF-4.0.7\BUILD\LIBTIFF\TIFF.DIR\DEBUG\TIF_LZMA.OBJ
C:\SOURCECODE\TIFF-4.0.7\TIFF-4.0.7\BUILD\LIBTIFF\TIFF.DIR\DEBUG\TIF_LZW.OBJ
C:\SOURCECODE\TIFF-4.0.7\TIFF-4.0.7\BUILD\LIBTIFF\TIFF.DIR\DEBUG\TIF_NEXT.OBJ
C:\SOURCECODE\TIFF-4.0.7\TIFF-4.0.7\BUILD\LIBTIFF\TIFF.DIR\DEBUG\TIF_OJPEG.OBJ
C:\SOURCECODE\TIFF-4.0.7\TIFF-4.0.7\BUILD\LIBTIFF\TIFF.DIR\DEBUG\TIF_OPEN.OBJ
C:\SOURCECODE\TIFF-4.0.7\TIFF-4.0.7\BUILD\LIBTIFF\TIFF.DIR\DEBUG\TIF_PACKBITS.OBJ
C:\SOURCECODE\TIFF-4.0.7\TIFF-4.0.7\BUILD\LIBTIFF\TIFF.DIR\DEBUG\TIF_PIXARLOG.OBJ
C:\SOURCECODE\TIFF-4.0.7\TIFF-4.0.7\BUILD\LIBTIFF\TIFF.DIR\DEBUG\TIF_PREDICT.OBJ
C:\SOURCECODE\TIFF-4.0.7\TIFF-4.0.7\BUILD\LIBTIFF\TIFF.DIR\DEBUG\TIF_PRINT.OBJ
C:\SOURCECODE\TIFF-4.0.7\TIFF-4.0.7\BUILD\LIBTIFF\TIFF.DIR\DEBUG\TIF_READ.OBJ
C:\SOURCECODE\TIFF-4.0.7\TIFF-4.0.7\BUILD\LIBTIFF\TIFF.DIR\DEBUG\TIF_STRIP.OBJ
C:\SOURCECODE\TIFF-4.0.7\TIFF-4.0.7\BUILD\LIBTIFF\TIFF.DIR\DEBUG\TIF_SWAB.OBJ
C:\SOURCECODE\TIFF-4.0.7\TIFF-4.0.7\BUILD\LIBTIFF\TIFF.DIR\DEBUG\TIF_THUNDER.OBJ
C:\SOURCECODE\TIFF-4.0.7\TIFF-4.0.7\BUILD\LIBTIFF\TIFF.DIR\DEBUG\TIF_TILE.OBJ
C:\SOURCECODE\TIFF-4.0.7\TIFF-4.0.7\BUILD\LIBTIFF\TIFF.DIR\DEBUG\TIF_VERSION.OBJ
C:\SOURCECODE\TIFF-4.0.7\TIFF-4.0.7\BUILD\LIBTIFF\TIFF.DIR\DEBUG\TIF_WARNING.OBJ
C:\SOURCECODE\TIFF-4.0.7\TIFF-4.0.7\BUILD\LIBTIFF\TIFF.DIR\DEBUG\TIF_WRITE.OBJ
C:\SOURCECODE\TIFF-4.0.7\TIFF-4.0.7\BUILD\LIBTIFF\TIFF.DIR\DEBUG\TIF_ZIP.OBJ
C:\SOURCECODE\TIFF-4.0.7\TIFF-4.0.7\BUILD\LIBTIFF\TIFF.DIR\DEBUG\TIF_UNIX.OBJ
C:\SOURCECODE\TIFF-4.0.7\TIFF-4.0.7\BUILD\LIBTIFF\TIFF.DIR\DEBUG\DUMMY.OBJ
C:\SOURCECODE\TIFF-4.0.7\TIFF-4.0.7\BUILD\LIBTIFF\TIFF.DIR\DEBUG\GETOPT.OBJ
C:\SOURCECODE\TIFF-4.0.7\TIFF-4.0.7\BUILD\LIBTIFF\TIFF.DIR\DEBUG\STRCASECMP.OBJ
C:\PROGRAM FILES (X86)\MICROSOFT VISUAL STUDIO 14.0\VC\LIB\AMD64\MSVCRTD.LIB
C:\PROGRAM FILES (X86)\MICROSOFT VISUAL STUDIO 14.0\VC\LIB\AMD64\OLDNAMES.LIB
C:\PROGRAM FILES (X86)\MICROSOFT VISUAL STUDIO 14.0\VC\LIB\AMD64\LIBCMT.LIB
C:\PROGRAM FILES (X86)\MICROSOFT VISUAL STUDIO 14.0\VC\LIB\AMD64\VCRUNTIMED.LIB
C:\PROGRAM FILES (X86)\WINDOWS KITS\10\LIB\10.0.10240.0\UCRT\X64\UCRTD.LIB
C:\SOURCECODE\TIFF-4.0.7\TIFF-4.0.7\LIBTIFF\LIBTIFF.DEF
C:\WINDOWS\SYSTEM32\RSAENH.DLL
C:\WINDOWS\SYSTEM32\TZRES.DLL
C:\PROGRAM FILES (X86)\MICROSOFT VISUAL STUDIO 14.0\VC\BIN\X86_AMD64\1033\LINKUI.DLL
C:\PROGRAM FILES (X86)\WINDOWS KITS\8.1\BIN\X86\RC.EXE
C:\PROGRAM FILES (X86)\MICROSOFT VISUAL STUDIO 14.0\VC\BIN\CVTRES.EXE
