^C:\SOURCECODE\ZLIB1211\ZLIB-1.2.11\BUILD\ZLIBSTATIC.DIR\DEBUG\ADLER32.OBJ|C:\SOURCECODE\ZLIB1211\ZLIB-1.2.11\BUILD\ZLIBSTATIC.DIR\DEBUG\COMPRESS.OBJ|C:\SOURCECODE\ZLIB1211\ZLIB-1.2.11\BUILD\ZLIBSTATIC.DIR\DEBUG\CRC32.OBJ|C:\SOURCECODE\ZLIB1211\ZLIB-1.2.11\BUILD\ZLIBSTATIC.DIR\DEBUG\DEFLATE.OBJ|C:\SOURCECODE\ZLIB1211\ZLIB-1.2.11\BUILD\ZLIBSTATIC.DIR\DEBUG\GZCLOSE.OBJ|C:\SOURCECODE\ZLIB1211\ZLIB-1.2.11\BUILD\ZLIBSTATIC.DIR\DEBUG\GZLIB.OBJ|C:\SOURCECODE\ZLIB1211\ZLIB-1.2.11\BUILD\ZLIBSTATIC.DIR\DEBUG\GZREAD.OBJ|C:\SOURCECODE\ZLIB1211\ZLIB-1.2.11\BUILD\ZLIBSTATIC.DIR\DEBUG\GZWRITE.OBJ|C:\SOURCECODE\ZLIB1211\ZLIB-1.2.11\BUILD\ZLIBSTATIC.DIR\DEBUG\INFBACK.OBJ|C:\SOURCECODE\ZLIB1211\ZLIB-1.2.11\BUILD\ZLIBSTATIC.DIR\DEBUG\INFFAST.OBJ|C:\SOURCECODE\ZLIB1211\ZLIB-1.2.11\BUILD\ZLIBSTATIC.DIR\DEBUG\INFLATE.OBJ|C:\SOURCECODE\ZLIB1211\ZLIB-1.2.11\BUILD\ZLIBSTATIC.DIR\DEBUG\INFTREES.OBJ|C:\SOURCECODE\ZLIB1211\ZLIB-1.2.11\BUILD\ZLIBSTATIC.DIR\DEBUG\TREES.OBJ|C:\SOURCECODE\ZLIB1211\ZLIB-1.2.11\BUILD\ZLIBSTATIC.DIR\DEBUG\UNCOMPR.OBJ|C:\SOURCECODE\ZLIB1211\ZLIB-1.2.11\BUILD\ZLIBSTATIC.DIR\DEBUG\ZUTIL.OBJ
C:\WINDOWS\GLOBALIZATION\SORTING\SORTDEFAULT.NLS
C:\SOURCECODE\ZLIB1211\ZLIB-1.2.11\BUILD\ZLIBSTATIC.DIR\DEBUG\ADLER32.OBJ
C:\WINDOWS\SYSTEM32\TZRES.DLL
C:\SOURCECODE\ZLIB1211\ZLIB-1.2.11\BUILD\ZLIBSTATIC.DIR\DEBUG\COMPRESS.OBJ
C:\SOURCECODE\ZLIB1211\ZLIB-1.2.11\BUILD\ZLIBSTATIC.DIR\DEBUG\CRC32.OBJ
C:\SOURCECODE\ZLIB1211\ZLIB-1.2.11\BUILD\ZLIBSTATIC.DIR\DEBUG\DEFLATE.OBJ
C:\SOURCECODE\ZLIB1211\ZLIB-1.2.11\BUILD\ZLIBSTATIC.DIR\DEBUG\GZCLOSE.OBJ
C:\SOURCECODE\ZLIB1211\ZLIB-1.2.11\BUILD\ZLIBSTATIC.DIR\DEBUG\GZLIB.OBJ
C:\SOURCECODE\ZLIB1211\ZLIB-1.2.11\BUILD\ZLIBSTATIC.DIR\DEBUG\GZREAD.OBJ
C:\SOURCECODE\ZLIB1211\ZLIB-1.2.11\BUILD\ZLIBSTATIC.DIR\DEBUG\GZWRITE.OBJ
C:\SOURCECODE\ZLIB1211\ZLIB-1.2.11\BUILD\ZLIBSTATIC.DIR\DEBUG\INFLATE.OBJ
C:\SOURCECODE\ZLIB1211\ZLIB-1.2.11\BUILD\ZLIBSTATIC.DIR\DEBUG\INFBACK.OBJ
C:\SOURCECODE\ZLIB1211\ZLIB-1.2.11\BUILD\ZLIBSTATIC.DIR\DEBUG\INFTREES.OBJ
C:\SOURCECODE\ZLIB1211\ZLIB-1.2.11\BUILD\ZLIBSTATIC.DIR\DEBUG\INFFAST.OBJ
C:\SOURCECODE\ZLIB1211\ZLIB-1.2.11\BUILD\ZLIBSTATIC.DIR\DEBUG\TREES.OBJ
C:\SOURCECODE\ZLIB1211\ZLIB-1.2.11\BUILD\ZLIBSTATIC.DIR\DEBUG\UNCOMPR.OBJ
C:\SOURCECODE\ZLIB1211\ZLIB-1.2.11\BUILD\ZLIBSTATIC.DIR\DEBUG\ZUTIL.OBJ
